{
    "unit": "allcare",
    "schema": "allsys",
    "name": "bronze",
    "description": "Layout para a base Allsys",
    "fieldDelimiter": "#",
    "skipLines": 8,
    "version": 0,
    "quote": "\"",
    "headerRegex": "(?i)administradora\\#filial\\#unidade\\#grupo\\#nome\\s+grupo\\#contrato\\#contrato\\s+operadora\\#c.digo\\s+ans\\s+operadora\\#operadora\\#linha\\s+produto\\#segmento\\#c.digo\\s+plano\\s+m.dico\\#nome\\s+plano\\s+m.dico\\#c.digo\\s+plano\\s+dental\\#nome\\s+plano\\s+dental\\#tipo\\s+produto\\#cnpj\\s+contratante\\#entidade\\#raz.o\\s+social\\#data\\s+de\\s+nascimento.*",
    "startRegex": ".*",
    "nameRegex": ".*",
    "dateRefMode": "today",
    "fields": 
    {
        "0": 
        {
            "type": "FieldString",
            "name": "administradora"
        },
        "1": 
        {
            "type": "FieldString",
            "name": "filial"
        },
        "2": 
        {
            "type": "FieldString",
            "name": "unidade"
        },
        "3": {
            "type": "FieldString",
            "name": "grupo"
        },
        "4": 
        {
            "type": "FieldString",
            "name": "nome_grupo"
        },
        "5": 
        {
            "type": "FieldString",
            "name": "contrato"
        },
        "6": 
        {
            "type": "FieldString",
            "name": "contrato_operadora"
        },
        "7": 
        {
            "type": "FieldString",
            "name": "codigo_ans_operadora"
        },
        "8": 
        {
            "type": "FieldString",
            "name": "operadora"
        },
        "9": 
        {
            "type": "FieldString",
            "name": "linha_produto"
        },
        "10": 
        {
            "type": "FieldString",
            "name": "segmento"
        },
        "11": 
        {
            "type": "FieldString",
            "name": "codigo_plano_medico"
        },
        "12": 
        {
            "type": "FieldString",
            "name": "nome_plano_medico"
        },
        "13": 
        {
            "type": "FieldString",
            "name": "codigo_plano_dental"
        },
        "14": 
        {
            "type": "FieldString",
            "name": "nome_plano_dental"
        },
        "15": 
        {
            "type": "FieldString",
            "name": "tipo_produto"
        },
        "16": 
        {
            "type": "FieldString",
            "name": "cnpj_contratante"
        },
        "17": 
        {
            "type": "FieldString",
            "name": "entidade"
        },
        "18": 
        {
            "type": "FieldString",
            "name": "razao_social"
        },
        "19": 
        {
            "type": "FieldString",
            "name": "dt_nascimento"
        },
        "20": 
        {
            "type": "FieldString",
            "name": "idade"
        },
        "21": 
        {
            "type": "FieldString",
            "name": "marca_otica_medico",
            "replacements": [
                {
                    "search": "A",
                    "replace": "065"
                },
                {
                    "search": "B",
                    "replace": "066"
                },
                {
                    "search": "C",
                    "replace": "067"
                },
                {
                    "search": "D",
                    "replace": "068"
                },
                {
                    "search": "E",
                    "replace": "069"
                },
                {
                    "search": "F",
                    "replace": "070"
                },
                {
                    "search": "G",
                    "replace": "071"
                },
                {
                    "search": "H",
                    "replace": "072"
                },
                {
                    "search": "I",
                    "replace": "073"
                },
                {
                    "search": "J",
                    "replace": "074"
                },
                {
                    "search": "K",
                    "replace": "075"
                },
                {
                    "search": "L",
                    "replace": "076"
                },
                {
                    "search": "M",
                    "replace": "077"
                },
                {
                    "search": "N",
                    "replace": "078"
                },
                {
                    "search": "O",
                    "replace": "079"
                },
                {
                    "search": "P",
                    "replace": "080"
                },
                {
                    "search": "Q",
                    "replace": "081"
                },
                {
                    "search": "R",
                    "replace": "082"
                },
                {
                    "search": "S",
                    "replace": "083"
                },
                {
                    "search": "T",
                    "replace": "084"
                },
                {
                    "search": "U",
                    "replace": "085"
                },
                {
                    "search": "V",
                    "replace": "086"
                },
                {
                    "search": "W",
                    "replace": "087"
                },
                {
                    "search": "X",
                    "replace": "088"
                },
                {
                    "search": "Y",
                    "replace": "089"
                },
                {
                    "search": "Z",
                    "replace": "090"
                }
			]
        },
        "22": 
        {
            "type": "FieldString",
            "name": "marca_otica_dental"
        },
        "23": 
        {
            "type": "FieldString",
            "name": "numero_beneficiario"
        },
        "24": 
        {
            "type": "FieldString",
            "name": "nome_beneficiario"
        },
        "25": 
        {
            "type": "FieldString",
            "name": "status_acao_judicial"
        },
        "26": 
        {
            "type": "FieldString",
            "name": "dt_exclusao"
        },
        "27": 
        {
            "type": "FieldString",
            "name": "dt_suspensao"
        },
        "28": 
        {
            "type": "FieldString",
            "name": "dt_ultima_reativacao"
        },
        "29": 
        {
            "type": "FieldString",
            "name": "motivo_exclusao"
        },
        "30": 
        {
            "type": "FieldString",
            "name": "regional"
        },
        "31": 
        {
            "type": "FieldString",
            "name": "situacao_contrato"
        },
        "32": 
        {
            "type": "FieldString",
            "name": "celula"
        },
        "33": 
        {
            "type": "FieldString",
            "name": "porte_contrato"
        },
        "34": 
        {
            "type": "FieldString",
            "name": "nosso_numero"
        },
        "35": 
        {
            "type": "FieldString",
            "name": "fatura"
        },
        "36": 
        {
            "type": "FieldString",
            "name": "nota_fiscal"
        },
        "37": 
        {
            "type": "FieldString",
            "name": "numero_cobranca"
        },
        "38": 
        {
            "type": "FieldString",
            "name": "tipo_ciclo"
        },
        "39-0":
        {
            "type": "FieldString",
            "name": "dt_competencia"
        },
        "39-1":
        {
            "type": "FieldString",
            "name": "dt_cobertura",
            "replacements": [
                {
                    "search": "(\\d+\\/\\d+)",
                    "replace": "01/$1 a 01/$1"
                }
            ]
        },
        "40": 
        {
            "type": "FieldString",
            "name": "dt_vencimento"
        },
        "41":
        {
            "type": "FieldString",
            "name": "dt_emissao"
        },
        "42":
        {
            "type": "FieldString",
            "name": "dt_pagamento"
        },
        "43": 
        {
            "type": "FieldString",
            "name": "dt_liquidacao"
        },
        "44": 
        {
            "type": "FieldString",
            "name": "dt_cancelamento"
        },
        "45": 
        {
            "type": "FieldString",
            "name": "motivo_cancelamento"
        },
        "46": 
        {
            "type": "FieldString",
            "name": "situacao"
        },
        "47": 
        {
            "type": "FieldString",
            "name": "valor_medico"
        },
        "48": 
        {
            "type": "FieldString",
            "name": "valor_dental"
        },
        "49": 
        {
            "type": "FieldString",
            "name": "valor_outros"
        },
        "50": 
        {
            "type": "FieldString",
            "name": "taxa_adminstracao"
        },
        "51": 
        {
            "type": "FieldString",
            "name": "mensalidade_associativa"
        },
        "52": 
        {
            "type": "FieldString",
            "name": "valor_fatura"
        },
        "53": 
        {
            "type": "FieldString",
            "name": "valor_pago"
        },
        "54": 
        {
            "type": "FieldString",
            "name": "valor_devido"
        },
        "55": 
        {
            "type": "FieldString",
            "name": "valor_desconto"
        },
        "56": 
        {
            "type": "FieldString",
            "name": "juros"
        },
        "57": 
        {
            "type": "FieldString",
            "name": "valor_impostos"
        },
        "58": 
        {
            "type": "FieldString",
            "name": "valor_saldo"
        },
        "59": 
        {
            "type": "FieldString",
            "name": "valor_net_medico"
        },
        "60": 
        {
            "type": "FieldString",
            "name": "valor_net_dental"
        },
        "61": 
        {
            "type": "FieldString",
            "name": "valor_over_medico"
        },
        "62": 
        {
            "type": "FieldString",
            "name": "valor_over_dental"
        },
        "63": 
        {
            "type": "FieldString",
            "name": "valor_total_over"
        },
        "64": 
        {
            "type": "FieldString",
            "name": "insecao_encargos"
        },
        "65": 
        {
            "type": "FieldString",
            "name": "dias_atraso"
        },
        "66": 
        {
            "type": "FieldString",
            "name": "vencimento_alterado"
        },
        "67": 
        {
            "type": "FieldString",
            "name": "dt_prorrogacao"
        },
        "68": 
        {
            "type": "FieldString",
            "name": "tipo_cobranca"
        },
        "69": 
        {
            "type": "FieldString",
            "name": "tipo_baixa"
        },
        "70": 
        {
            "type": "FieldString",
            "name": "forma_baixa"
        },
        "71": 
        {
            "type": "FieldString",
            "name": "agencia"
        },
        "72": 
        {
            "type": "FieldString",
            "name": "banco"
        },
        "73": 
        {
            "type": "FieldString",
            "name": "cedente"
        },
        "74": 
        {
            "type": "FieldString",
            "name": "arquivo_baixa"
        },
        "75": 
        {
            "type": "FieldString",
            "name": "cpf"
        },
        "76": 
        {
            "type": "FieldString",
            "name": "dt_vigencia"
        },
        "77": 
        {
            "type": "FieldString",
            "name": "vigencia"
        },
        "78": 
        {
            "type": "FieldString",
            "name": "corretora"
        },
        "79": 
        {
            "type": "FieldString",
            "name": "dt_inclusao"
        },
        "80": 
        {
            "type": "FieldString",
            "name": "dia_vencimento"
        },
        "81": 
        {
            "type": "FieldString",
            "name": "acao_judicial"
        },
        "82": 
        {
            "type": "FieldString",
            "name": "telefone"
        },
        "83": 
        {
            "type": "FieldString",
            "name": "celular"
        },
        "84": 
        {
            "type": "FieldString",
            "name": "endereco"
        },
        "85":
        {
            "type": "FieldString",
            "name": "email"
        },
        "86": 
        {
            "type": "FieldString",
            "name": "valor_a_pagar"
        },
        "87": 
        {
            "type": "FieldString",
            "name": "tipo_beneficiario"
        },
        "88": 
        {
            "type": "FieldString",
            "name": "dt_cobertura_x"
        },
        "89": 
        {
            "type": "FieldString",
            "name": "tipo_inadimplencia"
        }
    }
}